M48
; DRILL file {KiCad 6.0.7} date Mon 24 Oct 2022 09:30:16 PM PDT
; FORMAT={-:-/ absolute / metric / decimal}
; #@! TF.CreationDate,2022-10-24T21:30:16-07:00
; #@! TF.GenerationSoftware,Kicad,Pcbnew,6.0.7
; #@! TF.FileFunction,NonPlated,1,2,NPTH
FMAT,2
METRIC
; #@! TA.AperFunction,NonPlated,NPTH,ComponentDrill
T1C0.650
; #@! TA.AperFunction,NonPlated,NPTH,ComponentDrill
T2C1.152
; #@! TA.AperFunction,NonPlated,NPTH,ComponentDrill
T3C2.100
; #@! TA.AperFunction,NonPlated,NPTH,ComponentDrill
T4C3.200
%
G90
G05
T1
X5.145Y65.12
X5.145Y59.34
T2
X0.889Y75.311
X72.771Y0.889
T3
X8.362Y72.202
X8.362Y48.702
X31.262Y72.202
X31.262Y48.702
T4
X3.556Y72.644
X20.32Y12.7
X56.896Y12.7
X70.104Y72.644
T0
M30
