%TF.GenerationSoftware,KiCad,Pcbnew,6.0.7*%
%TF.CreationDate,2022-10-24T21:30:15-07:00*%
%TF.ProjectId,BatteryTester,42617474-6572-4795-9465-737465722e6b,rev?*%
%TF.SameCoordinates,PX6350ce0PY83c6600*%
%TF.FileFunction,Drillmap*%
%TF.FilePolarity,Positive*%
%FSLAX45Y45*%
G04 Gerber Fmt 4.5, Leading zero omitted, Abs format (unit mm)*
G04 Created by KiCad (PCBNEW 6.0.7) date 2022-10-24 21:30:15*
%MOMM*%
%LPD*%
G01*
G04 APERTURE LIST*
%ADD10C,0.050000*%
%ADD11C,0.200000*%
%ADD12C,0.065000*%
%ADD13C,0.115200*%
%ADD14C,0.210000*%
%ADD15C,0.320000*%
G04 APERTURE END LIST*
D10*
X7366000Y7620000D02*
X7315200Y7620000D01*
X0Y7620000D02*
X0Y0D01*
X7366000Y0D02*
X0Y0D01*
X0Y7620000D02*
X7315200Y7620000D01*
X7366000Y0D02*
X7366000Y7620000D01*
D11*
D12*
X482000Y6544500D02*
X547000Y6479500D01*
X547000Y6544500D02*
X482000Y6479500D01*
X482000Y5966500D02*
X547000Y5901500D01*
X547000Y5966500D02*
X482000Y5901500D01*
D13*
X146500Y7531100D02*
G75*
G03*
X146500Y7531100I-57600J0D01*
G01*
X7334700Y88900D02*
G75*
G03*
X7334700Y88900I-57600J0D01*
G01*
D14*
X836200Y7325200D02*
X836200Y7115200D01*
X731200Y7220200D02*
X941200Y7220200D01*
X836200Y4975200D02*
X836200Y4765200D01*
X731200Y4870200D02*
X941200Y4870200D01*
X3126200Y7325200D02*
X3126200Y7115200D01*
X3021200Y7220200D02*
X3231200Y7220200D01*
X3126200Y4975200D02*
X3126200Y4765200D01*
X3021200Y4870200D02*
X3231200Y4870200D01*
D15*
X468738Y7151262D02*
X468738Y7377538D01*
X242462Y7377538D01*
X242462Y7151262D01*
X468738Y7151262D01*
X2145138Y1156862D02*
X2145138Y1383138D01*
X1918862Y1383138D01*
X1918862Y1156862D01*
X2145138Y1156862D01*
X5802738Y1156862D02*
X5802738Y1383138D01*
X5576462Y1383138D01*
X5576462Y1156862D01*
X5802738Y1156862D01*
X7123538Y7151262D02*
X7123538Y7377538D01*
X6897262Y7377538D01*
X6897262Y7151262D01*
X7123538Y7151262D01*
D11*
X255119Y-312976D02*
X255119Y-112976D01*
X302738Y-112976D01*
X331310Y-122500D01*
X350357Y-141548D01*
X359881Y-160595D01*
X369405Y-198690D01*
X369405Y-227262D01*
X359881Y-265357D01*
X350357Y-284405D01*
X331310Y-303452D01*
X302738Y-312976D01*
X255119Y-312976D01*
X455119Y-312976D02*
X455119Y-179643D01*
X455119Y-217738D02*
X464643Y-198690D01*
X474167Y-189167D01*
X493214Y-179643D01*
X512262Y-179643D01*
X578929Y-312976D02*
X578929Y-179643D01*
X578929Y-112976D02*
X569405Y-122500D01*
X578929Y-132024D01*
X588452Y-122500D01*
X578929Y-112976D01*
X578929Y-132024D01*
X702738Y-312976D02*
X683690Y-303452D01*
X674167Y-284405D01*
X674167Y-112976D01*
X807500Y-312976D02*
X788452Y-303452D01*
X778928Y-284405D01*
X778928Y-112976D01*
X1036071Y-312976D02*
X1036071Y-112976D01*
X1102738Y-255833D01*
X1169405Y-112976D01*
X1169405Y-312976D01*
X1350357Y-312976D02*
X1350357Y-208214D01*
X1340833Y-189167D01*
X1321786Y-179643D01*
X1283690Y-179643D01*
X1264643Y-189167D01*
X1350357Y-303452D02*
X1331310Y-312976D01*
X1283690Y-312976D01*
X1264643Y-303452D01*
X1255119Y-284405D01*
X1255119Y-265357D01*
X1264643Y-246309D01*
X1283690Y-236786D01*
X1331310Y-236786D01*
X1350357Y-227262D01*
X1445595Y-179643D02*
X1445595Y-379643D01*
X1445595Y-189167D02*
X1464643Y-179643D01*
X1502738Y-179643D01*
X1521786Y-189167D01*
X1531309Y-198690D01*
X1540833Y-217738D01*
X1540833Y-274881D01*
X1531309Y-293929D01*
X1521786Y-303452D01*
X1502738Y-312976D01*
X1464643Y-312976D01*
X1445595Y-303452D01*
X1626548Y-293929D02*
X1636071Y-303452D01*
X1626548Y-312976D01*
X1617024Y-303452D01*
X1626548Y-293929D01*
X1626548Y-312976D01*
X1626548Y-189167D02*
X1636071Y-198690D01*
X1626548Y-208214D01*
X1617024Y-198690D01*
X1626548Y-189167D01*
X1626548Y-208214D01*
D12*
X-67500Y-610000D02*
X-2500Y-675000D01*
X-2500Y-610000D02*
X-67500Y-675000D01*
D11*
X293214Y-532976D02*
X312262Y-532976D01*
X331310Y-542500D01*
X340833Y-552024D01*
X350357Y-571071D01*
X359881Y-609167D01*
X359881Y-656786D01*
X350357Y-694881D01*
X340833Y-713928D01*
X331310Y-723452D01*
X312262Y-732976D01*
X293214Y-732976D01*
X274167Y-723452D01*
X264643Y-713928D01*
X255119Y-694881D01*
X245595Y-656786D01*
X245595Y-609167D01*
X255119Y-571071D01*
X264643Y-552024D01*
X274167Y-542500D01*
X293214Y-532976D01*
X445595Y-713928D02*
X455119Y-723452D01*
X445595Y-732976D01*
X436071Y-723452D01*
X445595Y-713928D01*
X445595Y-732976D01*
X626548Y-532976D02*
X588452Y-532976D01*
X569405Y-542500D01*
X559881Y-552024D01*
X540833Y-580595D01*
X531310Y-618690D01*
X531310Y-694881D01*
X540833Y-713928D01*
X550357Y-723452D01*
X569405Y-732976D01*
X607500Y-732976D01*
X626548Y-723452D01*
X636071Y-713928D01*
X645595Y-694881D01*
X645595Y-647262D01*
X636071Y-628214D01*
X626548Y-618690D01*
X607500Y-609167D01*
X569405Y-609167D01*
X550357Y-618690D01*
X540833Y-628214D01*
X531310Y-647262D01*
X826548Y-532976D02*
X731309Y-532976D01*
X721786Y-628214D01*
X731309Y-618690D01*
X750357Y-609167D01*
X797976Y-609167D01*
X817024Y-618690D01*
X826548Y-628214D01*
X836071Y-647262D01*
X836071Y-694881D01*
X826548Y-713928D01*
X817024Y-723452D01*
X797976Y-732976D01*
X750357Y-732976D01*
X731309Y-723452D01*
X721786Y-713928D01*
X959881Y-532976D02*
X978928Y-532976D01*
X997976Y-542500D01*
X1007500Y-552024D01*
X1017024Y-571071D01*
X1026548Y-609167D01*
X1026548Y-656786D01*
X1017024Y-694881D01*
X1007500Y-713928D01*
X997976Y-723452D01*
X978928Y-732976D01*
X959881Y-732976D01*
X940833Y-723452D01*
X931309Y-713928D01*
X921786Y-694881D01*
X912262Y-656786D01*
X912262Y-609167D01*
X921786Y-571071D01*
X931309Y-552024D01*
X940833Y-542500D01*
X959881Y-532976D01*
X1112262Y-732976D02*
X1112262Y-599643D01*
X1112262Y-618690D02*
X1121786Y-609167D01*
X1140833Y-599643D01*
X1169405Y-599643D01*
X1188452Y-609167D01*
X1197976Y-628214D01*
X1197976Y-732976D01*
X1197976Y-628214D02*
X1207500Y-609167D01*
X1226548Y-599643D01*
X1255119Y-599643D01*
X1274167Y-609167D01*
X1283690Y-628214D01*
X1283690Y-732976D01*
X1378929Y-732976D02*
X1378929Y-599643D01*
X1378929Y-618690D02*
X1388452Y-609167D01*
X1407500Y-599643D01*
X1436071Y-599643D01*
X1455119Y-609167D01*
X1464643Y-628214D01*
X1464643Y-732976D01*
X1464643Y-628214D02*
X1474167Y-609167D01*
X1493214Y-599643D01*
X1521786Y-599643D01*
X1540833Y-609167D01*
X1550357Y-628214D01*
X1550357Y-732976D01*
X1940833Y-523452D02*
X1769405Y-780595D01*
X2197976Y-532976D02*
X2217024Y-532976D01*
X2236071Y-542500D01*
X2245595Y-552024D01*
X2255119Y-571071D01*
X2264643Y-609167D01*
X2264643Y-656786D01*
X2255119Y-694881D01*
X2245595Y-713928D01*
X2236071Y-723452D01*
X2217024Y-732976D01*
X2197976Y-732976D01*
X2178929Y-723452D01*
X2169405Y-713928D01*
X2159881Y-694881D01*
X2150357Y-656786D01*
X2150357Y-609167D01*
X2159881Y-571071D01*
X2169405Y-552024D01*
X2178929Y-542500D01*
X2197976Y-532976D01*
X2350357Y-713928D02*
X2359881Y-723452D01*
X2350357Y-732976D01*
X2340833Y-723452D01*
X2350357Y-713928D01*
X2350357Y-732976D01*
X2483690Y-532976D02*
X2502738Y-532976D01*
X2521786Y-542500D01*
X2531310Y-552024D01*
X2540833Y-571071D01*
X2550357Y-609167D01*
X2550357Y-656786D01*
X2540833Y-694881D01*
X2531310Y-713928D01*
X2521786Y-723452D01*
X2502738Y-732976D01*
X2483690Y-732976D01*
X2464643Y-723452D01*
X2455119Y-713928D01*
X2445595Y-694881D01*
X2436071Y-656786D01*
X2436071Y-609167D01*
X2445595Y-571071D01*
X2455119Y-552024D01*
X2464643Y-542500D01*
X2483690Y-532976D01*
X2626548Y-552024D02*
X2636071Y-542500D01*
X2655119Y-532976D01*
X2702738Y-532976D01*
X2721786Y-542500D01*
X2731310Y-552024D01*
X2740833Y-571071D01*
X2740833Y-590119D01*
X2731310Y-618690D01*
X2617024Y-732976D01*
X2740833Y-732976D01*
X2921786Y-532976D02*
X2826548Y-532976D01*
X2817024Y-628214D01*
X2826548Y-618690D01*
X2845595Y-609167D01*
X2893214Y-609167D01*
X2912262Y-618690D01*
X2921786Y-628214D01*
X2931309Y-647262D01*
X2931309Y-694881D01*
X2921786Y-713928D01*
X2912262Y-723452D01*
X2893214Y-732976D01*
X2845595Y-732976D01*
X2826548Y-723452D01*
X2817024Y-713928D01*
X3102738Y-532976D02*
X3064643Y-532976D01*
X3045595Y-542500D01*
X3036071Y-552024D01*
X3017024Y-580595D01*
X3007500Y-618690D01*
X3007500Y-694881D01*
X3017024Y-713928D01*
X3026548Y-723452D01*
X3045595Y-732976D01*
X3083690Y-732976D01*
X3102738Y-723452D01*
X3112262Y-713928D01*
X3121786Y-694881D01*
X3121786Y-647262D01*
X3112262Y-628214D01*
X3102738Y-618690D01*
X3083690Y-609167D01*
X3045595Y-609167D01*
X3026548Y-618690D01*
X3017024Y-628214D01*
X3007500Y-647262D01*
X3197976Y-532976D02*
X3197976Y-571071D01*
X3274167Y-532976D02*
X3274167Y-571071D01*
X3569405Y-809167D02*
X3559881Y-799643D01*
X3540833Y-771071D01*
X3531309Y-752024D01*
X3521786Y-723452D01*
X3512262Y-675833D01*
X3512262Y-637738D01*
X3521786Y-590119D01*
X3531309Y-561548D01*
X3540833Y-542500D01*
X3559881Y-513928D01*
X3569405Y-504405D01*
X3636071Y-552024D02*
X3645595Y-542500D01*
X3664643Y-532976D01*
X3712262Y-532976D01*
X3731309Y-542500D01*
X3740833Y-552024D01*
X3750357Y-571071D01*
X3750357Y-590119D01*
X3740833Y-618690D01*
X3626548Y-732976D01*
X3750357Y-732976D01*
X3988452Y-732976D02*
X3988452Y-532976D01*
X4074167Y-732976D02*
X4074167Y-628214D01*
X4064643Y-609167D01*
X4045595Y-599643D01*
X4017024Y-599643D01*
X3997976Y-609167D01*
X3988452Y-618690D01*
X4197976Y-732976D02*
X4178928Y-723452D01*
X4169405Y-713928D01*
X4159881Y-694881D01*
X4159881Y-637738D01*
X4169405Y-618690D01*
X4178928Y-609167D01*
X4197976Y-599643D01*
X4226548Y-599643D01*
X4245595Y-609167D01*
X4255119Y-618690D01*
X4264643Y-637738D01*
X4264643Y-694881D01*
X4255119Y-713928D01*
X4245595Y-723452D01*
X4226548Y-732976D01*
X4197976Y-732976D01*
X4378929Y-732976D02*
X4359881Y-723452D01*
X4350357Y-704405D01*
X4350357Y-532976D01*
X4531310Y-723452D02*
X4512262Y-732976D01*
X4474167Y-732976D01*
X4455119Y-723452D01*
X4445595Y-704405D01*
X4445595Y-628214D01*
X4455119Y-609167D01*
X4474167Y-599643D01*
X4512262Y-599643D01*
X4531310Y-609167D01*
X4540833Y-628214D01*
X4540833Y-647262D01*
X4445595Y-666310D01*
X4617024Y-723452D02*
X4636071Y-732976D01*
X4674167Y-732976D01*
X4693214Y-723452D01*
X4702738Y-704405D01*
X4702738Y-694881D01*
X4693214Y-675833D01*
X4674167Y-666310D01*
X4645595Y-666310D01*
X4626548Y-656786D01*
X4617024Y-637738D01*
X4617024Y-628214D01*
X4626548Y-609167D01*
X4645595Y-599643D01*
X4674167Y-599643D01*
X4693214Y-609167D01*
X4769405Y-809167D02*
X4778929Y-799643D01*
X4797976Y-771071D01*
X4807500Y-752024D01*
X4817024Y-723452D01*
X4826548Y-675833D01*
X4826548Y-637738D01*
X4817024Y-590119D01*
X4807500Y-561548D01*
X4797976Y-542500D01*
X4778929Y-513928D01*
X4769405Y-504405D01*
X5131310Y-809167D02*
X5121786Y-799643D01*
X5102738Y-771071D01*
X5093214Y-752024D01*
X5083690Y-723452D01*
X5074167Y-675833D01*
X5074167Y-637738D01*
X5083690Y-590119D01*
X5093214Y-561548D01*
X5102738Y-542500D01*
X5121786Y-513928D01*
X5131310Y-504405D01*
X5207500Y-599643D02*
X5207500Y-732976D01*
X5207500Y-618690D02*
X5217024Y-609167D01*
X5236071Y-599643D01*
X5264643Y-599643D01*
X5283690Y-609167D01*
X5293214Y-628214D01*
X5293214Y-732976D01*
X5417024Y-732976D02*
X5397976Y-723452D01*
X5388452Y-713928D01*
X5378929Y-694881D01*
X5378929Y-637738D01*
X5388452Y-618690D01*
X5397976Y-609167D01*
X5417024Y-599643D01*
X5445595Y-599643D01*
X5464643Y-609167D01*
X5474167Y-618690D01*
X5483690Y-637738D01*
X5483690Y-694881D01*
X5474167Y-713928D01*
X5464643Y-723452D01*
X5445595Y-732976D01*
X5417024Y-732976D01*
X5540833Y-599643D02*
X5617024Y-599643D01*
X5569405Y-532976D02*
X5569405Y-704405D01*
X5578929Y-723452D01*
X5597976Y-732976D01*
X5617024Y-732976D01*
X5836071Y-599643D02*
X5836071Y-799643D01*
X5836071Y-609167D02*
X5855119Y-599643D01*
X5893214Y-599643D01*
X5912262Y-609167D01*
X5921786Y-618690D01*
X5931309Y-637738D01*
X5931309Y-694881D01*
X5921786Y-713928D01*
X5912262Y-723452D01*
X5893214Y-732976D01*
X5855119Y-732976D01*
X5836071Y-723452D01*
X6045595Y-732976D02*
X6026548Y-723452D01*
X6017024Y-704405D01*
X6017024Y-532976D01*
X6207500Y-732976D02*
X6207500Y-628214D01*
X6197976Y-609167D01*
X6178928Y-599643D01*
X6140833Y-599643D01*
X6121786Y-609167D01*
X6207500Y-723452D02*
X6188452Y-732976D01*
X6140833Y-732976D01*
X6121786Y-723452D01*
X6112262Y-704405D01*
X6112262Y-685357D01*
X6121786Y-666310D01*
X6140833Y-656786D01*
X6188452Y-656786D01*
X6207500Y-647262D01*
X6274167Y-599643D02*
X6350357Y-599643D01*
X6302738Y-532976D02*
X6302738Y-704405D01*
X6312262Y-723452D01*
X6331309Y-732976D01*
X6350357Y-732976D01*
X6493214Y-723452D02*
X6474167Y-732976D01*
X6436071Y-732976D01*
X6417024Y-723452D01*
X6407500Y-704405D01*
X6407500Y-628214D01*
X6417024Y-609167D01*
X6436071Y-599643D01*
X6474167Y-599643D01*
X6493214Y-609167D01*
X6502738Y-628214D01*
X6502738Y-647262D01*
X6407500Y-666310D01*
X6674167Y-732976D02*
X6674167Y-532976D01*
X6674167Y-723452D02*
X6655119Y-732976D01*
X6617024Y-732976D01*
X6597976Y-723452D01*
X6588452Y-713928D01*
X6578928Y-694881D01*
X6578928Y-637738D01*
X6588452Y-618690D01*
X6597976Y-609167D01*
X6617024Y-599643D01*
X6655119Y-599643D01*
X6674167Y-609167D01*
X6750357Y-809167D02*
X6759881Y-799643D01*
X6778928Y-771071D01*
X6788452Y-752024D01*
X6797976Y-723452D01*
X6807500Y-675833D01*
X6807500Y-637738D01*
X6797976Y-590119D01*
X6788452Y-561548D01*
X6778928Y-542500D01*
X6759881Y-513928D01*
X6750357Y-504405D01*
D13*
X-2500Y-906500D02*
G75*
G03*
X-2500Y-906500I-57600J0D01*
G01*
D11*
X359881Y-996976D02*
X245595Y-996976D01*
X302738Y-996976D02*
X302738Y-796976D01*
X283690Y-825548D01*
X264643Y-844595D01*
X245595Y-854119D01*
X445595Y-977928D02*
X455119Y-987452D01*
X445595Y-996976D01*
X436071Y-987452D01*
X445595Y-977928D01*
X445595Y-996976D01*
X645595Y-996976D02*
X531310Y-996976D01*
X588452Y-996976D02*
X588452Y-796976D01*
X569405Y-825548D01*
X550357Y-844595D01*
X531310Y-854119D01*
X826548Y-796976D02*
X731309Y-796976D01*
X721786Y-892214D01*
X731309Y-882690D01*
X750357Y-873167D01*
X797976Y-873167D01*
X817024Y-882690D01*
X826548Y-892214D01*
X836071Y-911262D01*
X836071Y-958881D01*
X826548Y-977928D01*
X817024Y-987452D01*
X797976Y-996976D01*
X750357Y-996976D01*
X731309Y-987452D01*
X721786Y-977928D01*
X912262Y-816024D02*
X921786Y-806500D01*
X940833Y-796976D01*
X988452Y-796976D01*
X1007500Y-806500D01*
X1017024Y-816024D01*
X1026548Y-835071D01*
X1026548Y-854119D01*
X1017024Y-882690D01*
X902738Y-996976D01*
X1026548Y-996976D01*
X1112262Y-996976D02*
X1112262Y-863643D01*
X1112262Y-882690D02*
X1121786Y-873167D01*
X1140833Y-863643D01*
X1169405Y-863643D01*
X1188452Y-873167D01*
X1197976Y-892214D01*
X1197976Y-996976D01*
X1197976Y-892214D02*
X1207500Y-873167D01*
X1226548Y-863643D01*
X1255119Y-863643D01*
X1274167Y-873167D01*
X1283690Y-892214D01*
X1283690Y-996976D01*
X1378929Y-996976D02*
X1378929Y-863643D01*
X1378929Y-882690D02*
X1388452Y-873167D01*
X1407500Y-863643D01*
X1436071Y-863643D01*
X1455119Y-873167D01*
X1464643Y-892214D01*
X1464643Y-996976D01*
X1464643Y-892214D02*
X1474167Y-873167D01*
X1493214Y-863643D01*
X1521786Y-863643D01*
X1540833Y-873167D01*
X1550357Y-892214D01*
X1550357Y-996976D01*
X1940833Y-787452D02*
X1769405Y-1044595D01*
X2197976Y-796976D02*
X2217024Y-796976D01*
X2236071Y-806500D01*
X2245595Y-816024D01*
X2255119Y-835071D01*
X2264643Y-873167D01*
X2264643Y-920786D01*
X2255119Y-958881D01*
X2245595Y-977928D01*
X2236071Y-987452D01*
X2217024Y-996976D01*
X2197976Y-996976D01*
X2178929Y-987452D01*
X2169405Y-977928D01*
X2159881Y-958881D01*
X2150357Y-920786D01*
X2150357Y-873167D01*
X2159881Y-835071D01*
X2169405Y-816024D01*
X2178929Y-806500D01*
X2197976Y-796976D01*
X2350357Y-977928D02*
X2359881Y-987452D01*
X2350357Y-996976D01*
X2340833Y-987452D01*
X2350357Y-977928D01*
X2350357Y-996976D01*
X2483690Y-796976D02*
X2502738Y-796976D01*
X2521786Y-806500D01*
X2531310Y-816024D01*
X2540833Y-835071D01*
X2550357Y-873167D01*
X2550357Y-920786D01*
X2540833Y-958881D01*
X2531310Y-977928D01*
X2521786Y-987452D01*
X2502738Y-996976D01*
X2483690Y-996976D01*
X2464643Y-987452D01*
X2455119Y-977928D01*
X2445595Y-958881D01*
X2436071Y-920786D01*
X2436071Y-873167D01*
X2445595Y-835071D01*
X2455119Y-816024D01*
X2464643Y-806500D01*
X2483690Y-796976D01*
X2721786Y-863643D02*
X2721786Y-996976D01*
X2674167Y-787452D02*
X2626548Y-930309D01*
X2750357Y-930309D01*
X2921786Y-796976D02*
X2826548Y-796976D01*
X2817024Y-892214D01*
X2826548Y-882690D01*
X2845595Y-873167D01*
X2893214Y-873167D01*
X2912262Y-882690D01*
X2921786Y-892214D01*
X2931309Y-911262D01*
X2931309Y-958881D01*
X2921786Y-977928D01*
X2912262Y-987452D01*
X2893214Y-996976D01*
X2845595Y-996976D01*
X2826548Y-987452D01*
X2817024Y-977928D01*
X3102738Y-863643D02*
X3102738Y-996976D01*
X3055119Y-787452D02*
X3007500Y-930309D01*
X3131309Y-930309D01*
X3197976Y-796976D02*
X3197976Y-835071D01*
X3274167Y-796976D02*
X3274167Y-835071D01*
X3569405Y-1073167D02*
X3559881Y-1063643D01*
X3540833Y-1035071D01*
X3531309Y-1016024D01*
X3521786Y-987452D01*
X3512262Y-939833D01*
X3512262Y-901738D01*
X3521786Y-854119D01*
X3531309Y-825548D01*
X3540833Y-806500D01*
X3559881Y-777928D01*
X3569405Y-768405D01*
X3636071Y-816024D02*
X3645595Y-806500D01*
X3664643Y-796976D01*
X3712262Y-796976D01*
X3731309Y-806500D01*
X3740833Y-816024D01*
X3750357Y-835071D01*
X3750357Y-854119D01*
X3740833Y-882690D01*
X3626548Y-996976D01*
X3750357Y-996976D01*
X3988452Y-996976D02*
X3988452Y-796976D01*
X4074167Y-996976D02*
X4074167Y-892214D01*
X4064643Y-873167D01*
X4045595Y-863643D01*
X4017024Y-863643D01*
X3997976Y-873167D01*
X3988452Y-882690D01*
X4197976Y-996976D02*
X4178928Y-987452D01*
X4169405Y-977928D01*
X4159881Y-958881D01*
X4159881Y-901738D01*
X4169405Y-882690D01*
X4178928Y-873167D01*
X4197976Y-863643D01*
X4226548Y-863643D01*
X4245595Y-873167D01*
X4255119Y-882690D01*
X4264643Y-901738D01*
X4264643Y-958881D01*
X4255119Y-977928D01*
X4245595Y-987452D01*
X4226548Y-996976D01*
X4197976Y-996976D01*
X4378929Y-996976D02*
X4359881Y-987452D01*
X4350357Y-968405D01*
X4350357Y-796976D01*
X4531310Y-987452D02*
X4512262Y-996976D01*
X4474167Y-996976D01*
X4455119Y-987452D01*
X4445595Y-968405D01*
X4445595Y-892214D01*
X4455119Y-873167D01*
X4474167Y-863643D01*
X4512262Y-863643D01*
X4531310Y-873167D01*
X4540833Y-892214D01*
X4540833Y-911262D01*
X4445595Y-930309D01*
X4617024Y-987452D02*
X4636071Y-996976D01*
X4674167Y-996976D01*
X4693214Y-987452D01*
X4702738Y-968405D01*
X4702738Y-958881D01*
X4693214Y-939833D01*
X4674167Y-930309D01*
X4645595Y-930309D01*
X4626548Y-920786D01*
X4617024Y-901738D01*
X4617024Y-892214D01*
X4626548Y-873167D01*
X4645595Y-863643D01*
X4674167Y-863643D01*
X4693214Y-873167D01*
X4769405Y-1073167D02*
X4778929Y-1063643D01*
X4797976Y-1035071D01*
X4807500Y-1016024D01*
X4817024Y-987452D01*
X4826548Y-939833D01*
X4826548Y-901738D01*
X4817024Y-854119D01*
X4807500Y-825548D01*
X4797976Y-806500D01*
X4778929Y-777928D01*
X4769405Y-768405D01*
X5131310Y-1073167D02*
X5121786Y-1063643D01*
X5102738Y-1035071D01*
X5093214Y-1016024D01*
X5083690Y-987452D01*
X5074167Y-939833D01*
X5074167Y-901738D01*
X5083690Y-854119D01*
X5093214Y-825548D01*
X5102738Y-806500D01*
X5121786Y-777928D01*
X5131310Y-768405D01*
X5207500Y-863643D02*
X5207500Y-996976D01*
X5207500Y-882690D02*
X5217024Y-873167D01*
X5236071Y-863643D01*
X5264643Y-863643D01*
X5283690Y-873167D01*
X5293214Y-892214D01*
X5293214Y-996976D01*
X5417024Y-996976D02*
X5397976Y-987452D01*
X5388452Y-977928D01*
X5378929Y-958881D01*
X5378929Y-901738D01*
X5388452Y-882690D01*
X5397976Y-873167D01*
X5417024Y-863643D01*
X5445595Y-863643D01*
X5464643Y-873167D01*
X5474167Y-882690D01*
X5483690Y-901738D01*
X5483690Y-958881D01*
X5474167Y-977928D01*
X5464643Y-987452D01*
X5445595Y-996976D01*
X5417024Y-996976D01*
X5540833Y-863643D02*
X5617024Y-863643D01*
X5569405Y-796976D02*
X5569405Y-968405D01*
X5578929Y-987452D01*
X5597976Y-996976D01*
X5617024Y-996976D01*
X5836071Y-863643D02*
X5836071Y-1063643D01*
X5836071Y-873167D02*
X5855119Y-863643D01*
X5893214Y-863643D01*
X5912262Y-873167D01*
X5921786Y-882690D01*
X5931309Y-901738D01*
X5931309Y-958881D01*
X5921786Y-977928D01*
X5912262Y-987452D01*
X5893214Y-996976D01*
X5855119Y-996976D01*
X5836071Y-987452D01*
X6045595Y-996976D02*
X6026548Y-987452D01*
X6017024Y-968405D01*
X6017024Y-796976D01*
X6207500Y-996976D02*
X6207500Y-892214D01*
X6197976Y-873167D01*
X6178928Y-863643D01*
X6140833Y-863643D01*
X6121786Y-873167D01*
X6207500Y-987452D02*
X6188452Y-996976D01*
X6140833Y-996976D01*
X6121786Y-987452D01*
X6112262Y-968405D01*
X6112262Y-949357D01*
X6121786Y-930309D01*
X6140833Y-920786D01*
X6188452Y-920786D01*
X6207500Y-911262D01*
X6274167Y-863643D02*
X6350357Y-863643D01*
X6302738Y-796976D02*
X6302738Y-968405D01*
X6312262Y-987452D01*
X6331309Y-996976D01*
X6350357Y-996976D01*
X6493214Y-987452D02*
X6474167Y-996976D01*
X6436071Y-996976D01*
X6417024Y-987452D01*
X6407500Y-968405D01*
X6407500Y-892214D01*
X6417024Y-873167D01*
X6436071Y-863643D01*
X6474167Y-863643D01*
X6493214Y-873167D01*
X6502738Y-892214D01*
X6502738Y-911262D01*
X6407500Y-930309D01*
X6674167Y-996976D02*
X6674167Y-796976D01*
X6674167Y-987452D02*
X6655119Y-996976D01*
X6617024Y-996976D01*
X6597976Y-987452D01*
X6588452Y-977928D01*
X6578928Y-958881D01*
X6578928Y-901738D01*
X6588452Y-882690D01*
X6597976Y-873167D01*
X6617024Y-863643D01*
X6655119Y-863643D01*
X6674167Y-873167D01*
X6750357Y-1073167D02*
X6759881Y-1063643D01*
X6778928Y-1035071D01*
X6788452Y-1016024D01*
X6797976Y-987452D01*
X6807500Y-939833D01*
X6807500Y-901738D01*
X6797976Y-854119D01*
X6788452Y-825548D01*
X6778928Y-806500D01*
X6759881Y-777928D01*
X6750357Y-768405D01*
X-102500Y-1070500D02*
X-102500Y-1270500D01*
X-202500Y-1170500D02*
X-2500Y-1170500D01*
X245595Y-1080024D02*
X255119Y-1070500D01*
X274167Y-1060976D01*
X321786Y-1060976D01*
X340833Y-1070500D01*
X350357Y-1080024D01*
X359881Y-1099071D01*
X359881Y-1118119D01*
X350357Y-1146690D01*
X236071Y-1260976D01*
X359881Y-1260976D01*
X445595Y-1241929D02*
X455119Y-1251452D01*
X445595Y-1260976D01*
X436071Y-1251452D01*
X445595Y-1241929D01*
X445595Y-1260976D01*
X645595Y-1260976D02*
X531310Y-1260976D01*
X588452Y-1260976D02*
X588452Y-1060976D01*
X569405Y-1089548D01*
X550357Y-1108595D01*
X531310Y-1118119D01*
X769405Y-1060976D02*
X788452Y-1060976D01*
X807500Y-1070500D01*
X817024Y-1080024D01*
X826548Y-1099071D01*
X836071Y-1137167D01*
X836071Y-1184786D01*
X826548Y-1222881D01*
X817024Y-1241929D01*
X807500Y-1251452D01*
X788452Y-1260976D01*
X769405Y-1260976D01*
X750357Y-1251452D01*
X740833Y-1241929D01*
X731309Y-1222881D01*
X721786Y-1184786D01*
X721786Y-1137167D01*
X731309Y-1099071D01*
X740833Y-1080024D01*
X750357Y-1070500D01*
X769405Y-1060976D01*
X959881Y-1060976D02*
X978928Y-1060976D01*
X997976Y-1070500D01*
X1007500Y-1080024D01*
X1017024Y-1099071D01*
X1026548Y-1137167D01*
X1026548Y-1184786D01*
X1017024Y-1222881D01*
X1007500Y-1241929D01*
X997976Y-1251452D01*
X978928Y-1260976D01*
X959881Y-1260976D01*
X940833Y-1251452D01*
X931309Y-1241929D01*
X921786Y-1222881D01*
X912262Y-1184786D01*
X912262Y-1137167D01*
X921786Y-1099071D01*
X931309Y-1080024D01*
X940833Y-1070500D01*
X959881Y-1060976D01*
X1112262Y-1260976D02*
X1112262Y-1127643D01*
X1112262Y-1146690D02*
X1121786Y-1137167D01*
X1140833Y-1127643D01*
X1169405Y-1127643D01*
X1188452Y-1137167D01*
X1197976Y-1156214D01*
X1197976Y-1260976D01*
X1197976Y-1156214D02*
X1207500Y-1137167D01*
X1226548Y-1127643D01*
X1255119Y-1127643D01*
X1274167Y-1137167D01*
X1283690Y-1156214D01*
X1283690Y-1260976D01*
X1378929Y-1260976D02*
X1378929Y-1127643D01*
X1378929Y-1146690D02*
X1388452Y-1137167D01*
X1407500Y-1127643D01*
X1436071Y-1127643D01*
X1455119Y-1137167D01*
X1464643Y-1156214D01*
X1464643Y-1260976D01*
X1464643Y-1156214D02*
X1474167Y-1137167D01*
X1493214Y-1127643D01*
X1521786Y-1127643D01*
X1540833Y-1137167D01*
X1550357Y-1156214D01*
X1550357Y-1260976D01*
X1940833Y-1051452D02*
X1769405Y-1308595D01*
X2197976Y-1060976D02*
X2217024Y-1060976D01*
X2236071Y-1070500D01*
X2245595Y-1080024D01*
X2255119Y-1099071D01*
X2264643Y-1137167D01*
X2264643Y-1184786D01*
X2255119Y-1222881D01*
X2245595Y-1241929D01*
X2236071Y-1251452D01*
X2217024Y-1260976D01*
X2197976Y-1260976D01*
X2178929Y-1251452D01*
X2169405Y-1241929D01*
X2159881Y-1222881D01*
X2150357Y-1184786D01*
X2150357Y-1137167D01*
X2159881Y-1099071D01*
X2169405Y-1080024D01*
X2178929Y-1070500D01*
X2197976Y-1060976D01*
X2350357Y-1241929D02*
X2359881Y-1251452D01*
X2350357Y-1260976D01*
X2340833Y-1251452D01*
X2350357Y-1241929D01*
X2350357Y-1260976D01*
X2483690Y-1060976D02*
X2502738Y-1060976D01*
X2521786Y-1070500D01*
X2531310Y-1080024D01*
X2540833Y-1099071D01*
X2550357Y-1137167D01*
X2550357Y-1184786D01*
X2540833Y-1222881D01*
X2531310Y-1241929D01*
X2521786Y-1251452D01*
X2502738Y-1260976D01*
X2483690Y-1260976D01*
X2464643Y-1251452D01*
X2455119Y-1241929D01*
X2445595Y-1222881D01*
X2436071Y-1184786D01*
X2436071Y-1137167D01*
X2445595Y-1099071D01*
X2455119Y-1080024D01*
X2464643Y-1070500D01*
X2483690Y-1060976D01*
X2664643Y-1146690D02*
X2645595Y-1137167D01*
X2636071Y-1127643D01*
X2626548Y-1108595D01*
X2626548Y-1099071D01*
X2636071Y-1080024D01*
X2645595Y-1070500D01*
X2664643Y-1060976D01*
X2702738Y-1060976D01*
X2721786Y-1070500D01*
X2731310Y-1080024D01*
X2740833Y-1099071D01*
X2740833Y-1108595D01*
X2731310Y-1127643D01*
X2721786Y-1137167D01*
X2702738Y-1146690D01*
X2664643Y-1146690D01*
X2645595Y-1156214D01*
X2636071Y-1165738D01*
X2626548Y-1184786D01*
X2626548Y-1222881D01*
X2636071Y-1241929D01*
X2645595Y-1251452D01*
X2664643Y-1260976D01*
X2702738Y-1260976D01*
X2721786Y-1251452D01*
X2731310Y-1241929D01*
X2740833Y-1222881D01*
X2740833Y-1184786D01*
X2731310Y-1165738D01*
X2721786Y-1156214D01*
X2702738Y-1146690D01*
X2817024Y-1080024D02*
X2826548Y-1070500D01*
X2845595Y-1060976D01*
X2893214Y-1060976D01*
X2912262Y-1070500D01*
X2921786Y-1080024D01*
X2931309Y-1099071D01*
X2931309Y-1118119D01*
X2921786Y-1146690D01*
X2807500Y-1260976D01*
X2931309Y-1260976D01*
X2997976Y-1060976D02*
X3131309Y-1060976D01*
X3045595Y-1260976D01*
X3197976Y-1060976D02*
X3197976Y-1099071D01*
X3274167Y-1060976D02*
X3274167Y-1099071D01*
X3569405Y-1337167D02*
X3559881Y-1327643D01*
X3540833Y-1299071D01*
X3531309Y-1280024D01*
X3521786Y-1251452D01*
X3512262Y-1203833D01*
X3512262Y-1165738D01*
X3521786Y-1118119D01*
X3531309Y-1089548D01*
X3540833Y-1070500D01*
X3559881Y-1041928D01*
X3569405Y-1032405D01*
X3731309Y-1127643D02*
X3731309Y-1260976D01*
X3683690Y-1051452D02*
X3636071Y-1194310D01*
X3759881Y-1194310D01*
X3988452Y-1260976D02*
X3988452Y-1060976D01*
X4074167Y-1260976D02*
X4074167Y-1156214D01*
X4064643Y-1137167D01*
X4045595Y-1127643D01*
X4017024Y-1127643D01*
X3997976Y-1137167D01*
X3988452Y-1146690D01*
X4197976Y-1260976D02*
X4178928Y-1251452D01*
X4169405Y-1241929D01*
X4159881Y-1222881D01*
X4159881Y-1165738D01*
X4169405Y-1146690D01*
X4178928Y-1137167D01*
X4197976Y-1127643D01*
X4226548Y-1127643D01*
X4245595Y-1137167D01*
X4255119Y-1146690D01*
X4264643Y-1165738D01*
X4264643Y-1222881D01*
X4255119Y-1241929D01*
X4245595Y-1251452D01*
X4226548Y-1260976D01*
X4197976Y-1260976D01*
X4378929Y-1260976D02*
X4359881Y-1251452D01*
X4350357Y-1232405D01*
X4350357Y-1060976D01*
X4531310Y-1251452D02*
X4512262Y-1260976D01*
X4474167Y-1260976D01*
X4455119Y-1251452D01*
X4445595Y-1232405D01*
X4445595Y-1156214D01*
X4455119Y-1137167D01*
X4474167Y-1127643D01*
X4512262Y-1127643D01*
X4531310Y-1137167D01*
X4540833Y-1156214D01*
X4540833Y-1175262D01*
X4445595Y-1194310D01*
X4617024Y-1251452D02*
X4636071Y-1260976D01*
X4674167Y-1260976D01*
X4693214Y-1251452D01*
X4702738Y-1232405D01*
X4702738Y-1222881D01*
X4693214Y-1203833D01*
X4674167Y-1194310D01*
X4645595Y-1194310D01*
X4626548Y-1184786D01*
X4617024Y-1165738D01*
X4617024Y-1156214D01*
X4626548Y-1137167D01*
X4645595Y-1127643D01*
X4674167Y-1127643D01*
X4693214Y-1137167D01*
X4769405Y-1337167D02*
X4778929Y-1327643D01*
X4797976Y-1299071D01*
X4807500Y-1280024D01*
X4817024Y-1251452D01*
X4826548Y-1203833D01*
X4826548Y-1165738D01*
X4817024Y-1118119D01*
X4807500Y-1089548D01*
X4797976Y-1070500D01*
X4778929Y-1041928D01*
X4769405Y-1032405D01*
X5131310Y-1337167D02*
X5121786Y-1327643D01*
X5102738Y-1299071D01*
X5093214Y-1280024D01*
X5083690Y-1251452D01*
X5074167Y-1203833D01*
X5074167Y-1165738D01*
X5083690Y-1118119D01*
X5093214Y-1089548D01*
X5102738Y-1070500D01*
X5121786Y-1041928D01*
X5131310Y-1032405D01*
X5207500Y-1127643D02*
X5207500Y-1260976D01*
X5207500Y-1146690D02*
X5217024Y-1137167D01*
X5236071Y-1127643D01*
X5264643Y-1127643D01*
X5283690Y-1137167D01*
X5293214Y-1156214D01*
X5293214Y-1260976D01*
X5417024Y-1260976D02*
X5397976Y-1251452D01*
X5388452Y-1241929D01*
X5378929Y-1222881D01*
X5378929Y-1165738D01*
X5388452Y-1146690D01*
X5397976Y-1137167D01*
X5417024Y-1127643D01*
X5445595Y-1127643D01*
X5464643Y-1137167D01*
X5474167Y-1146690D01*
X5483690Y-1165738D01*
X5483690Y-1222881D01*
X5474167Y-1241929D01*
X5464643Y-1251452D01*
X5445595Y-1260976D01*
X5417024Y-1260976D01*
X5540833Y-1127643D02*
X5617024Y-1127643D01*
X5569405Y-1060976D02*
X5569405Y-1232405D01*
X5578929Y-1251452D01*
X5597976Y-1260976D01*
X5617024Y-1260976D01*
X5836071Y-1127643D02*
X5836071Y-1327643D01*
X5836071Y-1137167D02*
X5855119Y-1127643D01*
X5893214Y-1127643D01*
X5912262Y-1137167D01*
X5921786Y-1146690D01*
X5931309Y-1165738D01*
X5931309Y-1222881D01*
X5921786Y-1241929D01*
X5912262Y-1251452D01*
X5893214Y-1260976D01*
X5855119Y-1260976D01*
X5836071Y-1251452D01*
X6045595Y-1260976D02*
X6026548Y-1251452D01*
X6017024Y-1232405D01*
X6017024Y-1060976D01*
X6207500Y-1260976D02*
X6207500Y-1156214D01*
X6197976Y-1137167D01*
X6178928Y-1127643D01*
X6140833Y-1127643D01*
X6121786Y-1137167D01*
X6207500Y-1251452D02*
X6188452Y-1260976D01*
X6140833Y-1260976D01*
X6121786Y-1251452D01*
X6112262Y-1232405D01*
X6112262Y-1213357D01*
X6121786Y-1194310D01*
X6140833Y-1184786D01*
X6188452Y-1184786D01*
X6207500Y-1175262D01*
X6274167Y-1127643D02*
X6350357Y-1127643D01*
X6302738Y-1060976D02*
X6302738Y-1232405D01*
X6312262Y-1251452D01*
X6331309Y-1260976D01*
X6350357Y-1260976D01*
X6493214Y-1251452D02*
X6474167Y-1260976D01*
X6436071Y-1260976D01*
X6417024Y-1251452D01*
X6407500Y-1232405D01*
X6407500Y-1156214D01*
X6417024Y-1137167D01*
X6436071Y-1127643D01*
X6474167Y-1127643D01*
X6493214Y-1137167D01*
X6502738Y-1156214D01*
X6502738Y-1175262D01*
X6407500Y-1194310D01*
X6674167Y-1260976D02*
X6674167Y-1060976D01*
X6674167Y-1251452D02*
X6655119Y-1260976D01*
X6617024Y-1260976D01*
X6597976Y-1251452D01*
X6588452Y-1241929D01*
X6578928Y-1222881D01*
X6578928Y-1165738D01*
X6588452Y-1146690D01*
X6597976Y-1137167D01*
X6617024Y-1127643D01*
X6655119Y-1127643D01*
X6674167Y-1137167D01*
X6750357Y-1337167D02*
X6759881Y-1327643D01*
X6778928Y-1299071D01*
X6788452Y-1280024D01*
X6797976Y-1251452D01*
X6807500Y-1203833D01*
X6807500Y-1165738D01*
X6797976Y-1118119D01*
X6788452Y-1089548D01*
X6778928Y-1070500D01*
X6759881Y-1041928D01*
X6750357Y-1032405D01*
X-31789Y-1561211D02*
X-31789Y-1419789D01*
X-173211Y-1419789D01*
X-173211Y-1561211D01*
X-31789Y-1561211D01*
X236071Y-1380976D02*
X359881Y-1380976D01*
X293214Y-1457167D01*
X321786Y-1457167D01*
X340833Y-1466690D01*
X350357Y-1476214D01*
X359881Y-1495262D01*
X359881Y-1542881D01*
X350357Y-1561928D01*
X340833Y-1571452D01*
X321786Y-1580976D01*
X264643Y-1580976D01*
X245595Y-1571452D01*
X236071Y-1561928D01*
X445595Y-1561928D02*
X455119Y-1571452D01*
X445595Y-1580976D01*
X436071Y-1571452D01*
X445595Y-1561928D01*
X445595Y-1580976D01*
X531310Y-1400024D02*
X540833Y-1390500D01*
X559881Y-1380976D01*
X607500Y-1380976D01*
X626548Y-1390500D01*
X636071Y-1400024D01*
X645595Y-1419071D01*
X645595Y-1438119D01*
X636071Y-1466690D01*
X521786Y-1580976D01*
X645595Y-1580976D01*
X769405Y-1380976D02*
X788452Y-1380976D01*
X807500Y-1390500D01*
X817024Y-1400024D01*
X826548Y-1419071D01*
X836071Y-1457167D01*
X836071Y-1504786D01*
X826548Y-1542881D01*
X817024Y-1561928D01*
X807500Y-1571452D01*
X788452Y-1580976D01*
X769405Y-1580976D01*
X750357Y-1571452D01*
X740833Y-1561928D01*
X731309Y-1542881D01*
X721786Y-1504786D01*
X721786Y-1457167D01*
X731309Y-1419071D01*
X740833Y-1400024D01*
X750357Y-1390500D01*
X769405Y-1380976D01*
X959881Y-1380976D02*
X978928Y-1380976D01*
X997976Y-1390500D01*
X1007500Y-1400024D01*
X1017024Y-1419071D01*
X1026548Y-1457167D01*
X1026548Y-1504786D01*
X1017024Y-1542881D01*
X1007500Y-1561928D01*
X997976Y-1571452D01*
X978928Y-1580976D01*
X959881Y-1580976D01*
X940833Y-1571452D01*
X931309Y-1561928D01*
X921786Y-1542881D01*
X912262Y-1504786D01*
X912262Y-1457167D01*
X921786Y-1419071D01*
X931309Y-1400024D01*
X940833Y-1390500D01*
X959881Y-1380976D01*
X1112262Y-1580976D02*
X1112262Y-1447643D01*
X1112262Y-1466690D02*
X1121786Y-1457167D01*
X1140833Y-1447643D01*
X1169405Y-1447643D01*
X1188452Y-1457167D01*
X1197976Y-1476214D01*
X1197976Y-1580976D01*
X1197976Y-1476214D02*
X1207500Y-1457167D01*
X1226548Y-1447643D01*
X1255119Y-1447643D01*
X1274167Y-1457167D01*
X1283690Y-1476214D01*
X1283690Y-1580976D01*
X1378929Y-1580976D02*
X1378929Y-1447643D01*
X1378929Y-1466690D02*
X1388452Y-1457167D01*
X1407500Y-1447643D01*
X1436071Y-1447643D01*
X1455119Y-1457167D01*
X1464643Y-1476214D01*
X1464643Y-1580976D01*
X1464643Y-1476214D02*
X1474167Y-1457167D01*
X1493214Y-1447643D01*
X1521786Y-1447643D01*
X1540833Y-1457167D01*
X1550357Y-1476214D01*
X1550357Y-1580976D01*
X1940833Y-1371452D02*
X1769405Y-1628595D01*
X2197976Y-1380976D02*
X2217024Y-1380976D01*
X2236071Y-1390500D01*
X2245595Y-1400024D01*
X2255119Y-1419071D01*
X2264643Y-1457167D01*
X2264643Y-1504786D01*
X2255119Y-1542881D01*
X2245595Y-1561928D01*
X2236071Y-1571452D01*
X2217024Y-1580976D01*
X2197976Y-1580976D01*
X2178929Y-1571452D01*
X2169405Y-1561928D01*
X2159881Y-1542881D01*
X2150357Y-1504786D01*
X2150357Y-1457167D01*
X2159881Y-1419071D01*
X2169405Y-1400024D01*
X2178929Y-1390500D01*
X2197976Y-1380976D01*
X2350357Y-1561928D02*
X2359881Y-1571452D01*
X2350357Y-1580976D01*
X2340833Y-1571452D01*
X2350357Y-1561928D01*
X2350357Y-1580976D01*
X2550357Y-1580976D02*
X2436071Y-1580976D01*
X2493214Y-1580976D02*
X2493214Y-1380976D01*
X2474167Y-1409548D01*
X2455119Y-1428595D01*
X2436071Y-1438119D01*
X2626548Y-1400024D02*
X2636071Y-1390500D01*
X2655119Y-1380976D01*
X2702738Y-1380976D01*
X2721786Y-1390500D01*
X2731310Y-1400024D01*
X2740833Y-1419071D01*
X2740833Y-1438119D01*
X2731310Y-1466690D01*
X2617024Y-1580976D01*
X2740833Y-1580976D01*
X2912262Y-1380976D02*
X2874167Y-1380976D01*
X2855119Y-1390500D01*
X2845595Y-1400024D01*
X2826548Y-1428595D01*
X2817024Y-1466690D01*
X2817024Y-1542881D01*
X2826548Y-1561928D01*
X2836071Y-1571452D01*
X2855119Y-1580976D01*
X2893214Y-1580976D01*
X2912262Y-1571452D01*
X2921786Y-1561928D01*
X2931309Y-1542881D01*
X2931309Y-1495262D01*
X2921786Y-1476214D01*
X2912262Y-1466690D01*
X2893214Y-1457167D01*
X2855119Y-1457167D01*
X2836071Y-1466690D01*
X2826548Y-1476214D01*
X2817024Y-1495262D01*
X3055119Y-1380976D02*
X3074167Y-1380976D01*
X3093214Y-1390500D01*
X3102738Y-1400024D01*
X3112262Y-1419071D01*
X3121786Y-1457167D01*
X3121786Y-1504786D01*
X3112262Y-1542881D01*
X3102738Y-1561928D01*
X3093214Y-1571452D01*
X3074167Y-1580976D01*
X3055119Y-1580976D01*
X3036071Y-1571452D01*
X3026548Y-1561928D01*
X3017024Y-1542881D01*
X3007500Y-1504786D01*
X3007500Y-1457167D01*
X3017024Y-1419071D01*
X3026548Y-1400024D01*
X3036071Y-1390500D01*
X3055119Y-1380976D01*
X3197976Y-1380976D02*
X3197976Y-1419071D01*
X3274167Y-1380976D02*
X3274167Y-1419071D01*
X3569405Y-1657167D02*
X3559881Y-1647643D01*
X3540833Y-1619071D01*
X3531309Y-1600024D01*
X3521786Y-1571452D01*
X3512262Y-1523833D01*
X3512262Y-1485738D01*
X3521786Y-1438119D01*
X3531309Y-1409548D01*
X3540833Y-1390500D01*
X3559881Y-1361929D01*
X3569405Y-1352405D01*
X3731309Y-1447643D02*
X3731309Y-1580976D01*
X3683690Y-1371452D02*
X3636071Y-1514309D01*
X3759881Y-1514309D01*
X3988452Y-1580976D02*
X3988452Y-1380976D01*
X4074167Y-1580976D02*
X4074167Y-1476214D01*
X4064643Y-1457167D01*
X4045595Y-1447643D01*
X4017024Y-1447643D01*
X3997976Y-1457167D01*
X3988452Y-1466690D01*
X4197976Y-1580976D02*
X4178928Y-1571452D01*
X4169405Y-1561928D01*
X4159881Y-1542881D01*
X4159881Y-1485738D01*
X4169405Y-1466690D01*
X4178928Y-1457167D01*
X4197976Y-1447643D01*
X4226548Y-1447643D01*
X4245595Y-1457167D01*
X4255119Y-1466690D01*
X4264643Y-1485738D01*
X4264643Y-1542881D01*
X4255119Y-1561928D01*
X4245595Y-1571452D01*
X4226548Y-1580976D01*
X4197976Y-1580976D01*
X4378929Y-1580976D02*
X4359881Y-1571452D01*
X4350357Y-1552405D01*
X4350357Y-1380976D01*
X4531310Y-1571452D02*
X4512262Y-1580976D01*
X4474167Y-1580976D01*
X4455119Y-1571452D01*
X4445595Y-1552405D01*
X4445595Y-1476214D01*
X4455119Y-1457167D01*
X4474167Y-1447643D01*
X4512262Y-1447643D01*
X4531310Y-1457167D01*
X4540833Y-1476214D01*
X4540833Y-1495262D01*
X4445595Y-1514309D01*
X4617024Y-1571452D02*
X4636071Y-1580976D01*
X4674167Y-1580976D01*
X4693214Y-1571452D01*
X4702738Y-1552405D01*
X4702738Y-1542881D01*
X4693214Y-1523833D01*
X4674167Y-1514309D01*
X4645595Y-1514309D01*
X4626548Y-1504786D01*
X4617024Y-1485738D01*
X4617024Y-1476214D01*
X4626548Y-1457167D01*
X4645595Y-1447643D01*
X4674167Y-1447643D01*
X4693214Y-1457167D01*
X4769405Y-1657167D02*
X4778929Y-1647643D01*
X4797976Y-1619071D01*
X4807500Y-1600024D01*
X4817024Y-1571452D01*
X4826548Y-1523833D01*
X4826548Y-1485738D01*
X4817024Y-1438119D01*
X4807500Y-1409548D01*
X4797976Y-1390500D01*
X4778929Y-1361929D01*
X4769405Y-1352405D01*
X5131310Y-1657167D02*
X5121786Y-1647643D01*
X5102738Y-1619071D01*
X5093214Y-1600024D01*
X5083690Y-1571452D01*
X5074167Y-1523833D01*
X5074167Y-1485738D01*
X5083690Y-1438119D01*
X5093214Y-1409548D01*
X5102738Y-1390500D01*
X5121786Y-1361929D01*
X5131310Y-1352405D01*
X5207500Y-1447643D02*
X5207500Y-1580976D01*
X5207500Y-1466690D02*
X5217024Y-1457167D01*
X5236071Y-1447643D01*
X5264643Y-1447643D01*
X5283690Y-1457167D01*
X5293214Y-1476214D01*
X5293214Y-1580976D01*
X5417024Y-1580976D02*
X5397976Y-1571452D01*
X5388452Y-1561928D01*
X5378929Y-1542881D01*
X5378929Y-1485738D01*
X5388452Y-1466690D01*
X5397976Y-1457167D01*
X5417024Y-1447643D01*
X5445595Y-1447643D01*
X5464643Y-1457167D01*
X5474167Y-1466690D01*
X5483690Y-1485738D01*
X5483690Y-1542881D01*
X5474167Y-1561928D01*
X5464643Y-1571452D01*
X5445595Y-1580976D01*
X5417024Y-1580976D01*
X5540833Y-1447643D02*
X5617024Y-1447643D01*
X5569405Y-1380976D02*
X5569405Y-1552405D01*
X5578929Y-1571452D01*
X5597976Y-1580976D01*
X5617024Y-1580976D01*
X5836071Y-1447643D02*
X5836071Y-1647643D01*
X5836071Y-1457167D02*
X5855119Y-1447643D01*
X5893214Y-1447643D01*
X5912262Y-1457167D01*
X5921786Y-1466690D01*
X5931309Y-1485738D01*
X5931309Y-1542881D01*
X5921786Y-1561928D01*
X5912262Y-1571452D01*
X5893214Y-1580976D01*
X5855119Y-1580976D01*
X5836071Y-1571452D01*
X6045595Y-1580976D02*
X6026548Y-1571452D01*
X6017024Y-1552405D01*
X6017024Y-1380976D01*
X6207500Y-1580976D02*
X6207500Y-1476214D01*
X6197976Y-1457167D01*
X6178928Y-1447643D01*
X6140833Y-1447643D01*
X6121786Y-1457167D01*
X6207500Y-1571452D02*
X6188452Y-1580976D01*
X6140833Y-1580976D01*
X6121786Y-1571452D01*
X6112262Y-1552405D01*
X6112262Y-1533357D01*
X6121786Y-1514309D01*
X6140833Y-1504786D01*
X6188452Y-1504786D01*
X6207500Y-1495262D01*
X6274167Y-1447643D02*
X6350357Y-1447643D01*
X6302738Y-1380976D02*
X6302738Y-1552405D01*
X6312262Y-1571452D01*
X6331309Y-1580976D01*
X6350357Y-1580976D01*
X6493214Y-1571452D02*
X6474167Y-1580976D01*
X6436071Y-1580976D01*
X6417024Y-1571452D01*
X6407500Y-1552405D01*
X6407500Y-1476214D01*
X6417024Y-1457167D01*
X6436071Y-1447643D01*
X6474167Y-1447643D01*
X6493214Y-1457167D01*
X6502738Y-1476214D01*
X6502738Y-1495262D01*
X6407500Y-1514309D01*
X6674167Y-1580976D02*
X6674167Y-1380976D01*
X6674167Y-1571452D02*
X6655119Y-1580976D01*
X6617024Y-1580976D01*
X6597976Y-1571452D01*
X6588452Y-1561928D01*
X6578928Y-1542881D01*
X6578928Y-1485738D01*
X6588452Y-1466690D01*
X6597976Y-1457167D01*
X6617024Y-1447643D01*
X6655119Y-1447643D01*
X6674167Y-1457167D01*
X6750357Y-1657167D02*
X6759881Y-1647643D01*
X6778928Y-1619071D01*
X6788452Y-1600024D01*
X6797976Y-1571452D01*
X6807500Y-1523833D01*
X6807500Y-1485738D01*
X6797976Y-1438119D01*
X6788452Y-1409548D01*
X6778928Y-1390500D01*
X6759881Y-1361929D01*
X6750357Y-1352405D01*
M02*
